  $$$$$$$$$$$$$$$$$$$$$$$$$$$$$$$$$$$$$ 
    $   $     $   $     $   $ $   $   $ 
$$$ $ $ $ $ $$$ $$$ $$$$$ $$$ $ $$$$$ $ 
$     $ $ $ $   $   $   $       $ $  w$ 
$ $ $$$$$ $$$ $ $$$ $ $$$ $$$ $$$ $ $ $ 
$ $           $ $ $ $     $ $       $ $ 
$ $$$ $$$$$ $$$ $ $ $ $$$$$ $$$ $ $$$ $ 
$   $     $ $         $     $ $ $ $   $ 
$$$ $$$ $$$ $ $$$$$ $ $ $ $ $ $ $$$ $$$ 
$ $   $  t$ $   $   $  s$ $   $   $   $ 
$ $ $ $$$$$$$ $$$$$$$$$$$ $$$ $ $$$$$ $ 
$   $ $       $ $ $     $   $ $ $     $ 
$$$ $$$ $$$$$ $ $ $$$ $$$ $$$$$$$ $$$$$ 
$     $   $       $     $ $ $         $ 
$$$$$$$$$ $ $ $$$$$$$ $$$$$ $ $$$$$$$$$ 
$        m$ $ $   $   $       $ $     $ 
$ $$$$$ $$$ $$$ $$$$$ $$$$$ $$$ $ $ $$$ 
$   $ $   $         $       $ $   $ $ $ 
$$$$$ $$$ $$$$$$$ $$$ $ $$$ $ $ $$$ $ $ 
$         $       $   $ $         $   $ 
$$$$$$$$$$$$$$$$$$$$$$$$$$$$$$$$$$$$$e$ 